module ninepon-golang-echo

go 1.22.1

require (
	cloud.google.com/go v0.110.10 // indirect
	cloud.google.com/go/compute v1.23.3 // indirect
	cloud.google.com/go/compute/metadata v0.2.3 // indirect
	cloud.google.com/go/firestore v1.14.0 // indirect
	cloud.google.com/go/iam v1.1.5 // indirect
	cloud.google.com/go/longrunning v0.5.4 // indirect
	cloud.google.com/go/storage v1.35.1 // indirect
	firebase.google.com/go v3.13.0+incompatible // indirect
	github.com/andybalholm/brotli v1.1.0 // indirect
	github.com/cloudflare/circl v1.3.7 // indirect
	github.com/dgrijalva/jwt-go v3.2.0+incompatible // indirect
	github.com/fsnotify/fsnotify v1.7.0 // indirect
	github.com/gabriel-vasile/mimetype v1.4.3 // indirect
	github.com/go-co-op/gocron v1.37.0 // indirect
	github.com/go-playground/locales v0.14.1 // indirect
	github.com/go-playground/universal-translator v0.18.1 // indirect
	github.com/go-playground/validator/v10 v10.19.0 // indirect
	github.com/go-redis/redis v6.15.9+incompatible // indirect
	github.com/go-sql-driver/mysql v1.7.0 // indirect
	github.com/go-task/slim-sprig v0.0.0-20230315185526-52ccab3ef572 // indirect
	github.com/golang-jwt/jwt/v4 v4.5.0 // indirect
	github.com/golang/groupcache v0.0.0-20210331224755-41bb18bfe9da // indirect
	github.com/golang/protobuf v1.5.3 // indirect
	github.com/google/pprof v0.0.0-20240227163752-401108e1b7e7 // indirect
	github.com/google/s2a-go v0.1.7 // indirect
	github.com/google/uuid v1.4.0 // indirect
	github.com/googleapis/enterprise-certificate-proxy v0.3.2 // indirect
	github.com/googleapis/gax-go/v2 v2.12.0 // indirect
	github.com/hashicorp/errwrap v1.1.0 // indirect
	github.com/hashicorp/go-multierror v1.1.1 // indirect
	github.com/hashicorp/hcl v1.0.0 // indirect
	github.com/imroc/req/v3 v3.43.3 // indirect
	github.com/jinzhu/inflection v1.0.0 // indirect
	github.com/jinzhu/now v1.1.5 // indirect
	github.com/klauspost/compress v1.17.7 // indirect
	github.com/labstack/echo v3.3.10+incompatible // indirect
	github.com/labstack/echo/v4 v4.12.0 // indirect
	github.com/labstack/gommon v0.4.2 // indirect
	github.com/leodido/go-urn v1.4.0 // indirect
	github.com/magiconair/properties v1.8.7 // indirect
	github.com/mattn/go-colorable v0.1.13 // indirect
	github.com/mattn/go-isatty v0.0.20 // indirect
	github.com/mitchellh/mapstructure v1.5.0 // indirect
	github.com/onsi/ginkgo/v2 v2.16.0 // indirect
	github.com/pelletier/go-toml/v2 v2.1.0 // indirect
	github.com/quic-go/qpack v0.4.0 // indirect
	github.com/quic-go/quic-go v0.41.0 // indirect
	github.com/refraction-networking/utls v1.6.3 // indirect
	github.com/robfig/cron/v3 v3.0.1 // indirect
	github.com/sagikazarmark/locafero v0.4.0 // indirect
	github.com/sagikazarmark/slog-shim v0.1.0 // indirect
	github.com/sourcegraph/conc v0.3.0 // indirect
	github.com/spf13/afero v1.11.0 // indirect
	github.com/spf13/cast v1.6.0 // indirect
	github.com/spf13/pflag v1.0.5 // indirect
	github.com/spf13/viper v1.18.2 // indirect
	github.com/subosito/gotenv v1.6.0 // indirect
	github.com/tjarratt/babble v0.0.0-20210505082055-cbca2a4833c1 // indirect
	github.com/valyala/bytebufferpool v1.0.0 // indirect
	github.com/valyala/fasttemplate v1.2.2 // indirect
	go.opencensus.io v0.24.0 // indirect
	go.uber.org/atomic v1.9.0 // indirect
	go.uber.org/mock v0.4.0 // indirect
	go.uber.org/multierr v1.9.0 // indirect
	golang.org/x/crypto v0.22.0 // indirect
	golang.org/x/exp v0.0.0-20240222234643-814bf88cf225 // indirect
	golang.org/x/mod v0.16.0 // indirect
	golang.org/x/net v0.24.0 // indirect
	golang.org/x/oauth2 v0.15.0 // indirect
	golang.org/x/sync v0.6.0 // indirect
	golang.org/x/sys v0.19.0 // indirect
	golang.org/x/text v0.14.0 // indirect
	golang.org/x/time v0.5.0 // indirect
	golang.org/x/tools v0.19.0 // indirect
	golang.org/x/xerrors v0.0.0-20220907171357-04be3eba64a2 // indirect
	google.golang.org/api v0.153.0 // indirect
	google.golang.org/appengine v1.6.7 // indirect
	google.golang.org/genproto v0.0.0-20231106174013-bbf56f31fb17 // indirect
	google.golang.org/genproto/googleapis/api v0.0.0-20231106174013-bbf56f31fb17 // indirect
	google.golang.org/genproto/googleapis/rpc v0.0.0-20231120223509-83a465c0220f // indirect
	google.golang.org/grpc v1.59.0 // indirect
	google.golang.org/protobuf v1.31.0 // indirect
	gopkg.in/ini.v1 v1.67.0 // indirect
	gopkg.in/yaml.v3 v3.0.1 // indirect
	gorm.io/driver/mysql v1.5.6 // indirect
	gorm.io/gorm v1.25.10 // indirect
)
